  0
SECTION
  2
ENTITIES
999
DXF created from EnergyPlus
999
Program Version,EnergyPlus, Version 9.0.1-bb7ca4f0da, YMD=2019.08.31 06:01
999
Polygon Action,ThickPolyline
999
Color Scheme,Default
999
Text - True North
  0
TEXT
  8
1
  6
Continuous
 62
  3
 10
      -11.00000
 20
        3.00000
 30
        0.10000
 40
 .25
  1
True North
 41
 0.0
  7
MONOTXT
210
0.0
220
0.0
230
1.0
999
Text - Building Title
  0
TEXT
  8
1
  6
Continuous
 62
  3
 10
      -14.00000
 20
       -1.00000
 30
        0.10000
 40
 .4
  1
Building - Ref Bldg Warehouse New2004_v1.3_5.0
 41
 0.0
  7
MONOTXT
210
0.0
220
0.0
230
1.0
999
North Arrow Stem
  0
3DFACE
  8
1
 62
  3
 10
      -10.00000
 20
        3.00000
 30
        0.10000
 11
      -10.00000
 21
        3.00000
 31
        0.00000
 12
      -10.00000
 22
        0.00000
 32
        0.00000
 13
      -10.00000
 23
        0.00000
 33
        0.10000
999
North Arrow Head 1
  0
3DFACE
  8
1
 62
  3
 10
      -10.00000
 20
        3.00000
 30
        0.10000
 11
      -10.00000
 21
        3.00000
 31
        0.00000
 12
      -10.50000
 22
        2.13397
 32
        0.00000
 13
      -10.50000
 23
        2.13397
 33
        0.10000
999
North Arrow Head 2
  0
3DFACE
  8
1
 62
  3
 10
      -10.00000
 20
        3.00000
 30
        0.10000
 11
      -10.00000
 21
        3.00000
 31
        0.00000
 12
       -9.50000
 22
        2.13397
 32
        0.00000
 13
       -9.50000
 23
        2.13397
 33
        0.10000
999
North Arrow Side 1
  0
3DFACE
  8
1
 62
  3
 10
      -10.50000
 20
        4.50000
 30
        0.10000
 11
      -10.50000
 21
        4.50000
 31
        0.00000
 12
      -10.50000
 22
        3.50000
 32
        0.00000
 13
      -10.50000
 23
        3.50000
 33
        0.10000
999
North Arrow Side 2
  0
3DFACE
  8
1
 62
  3
 10
      -10.50000
 20
        4.50000
 30
        0.10000
 11
      -10.50000
 21
        4.50000
 31
        0.00000
 12
       -9.50000
 22
        3.50000
 32
        0.00000
 13
       -9.50000
 23
        3.50000
 33
        0.10000
999
North Arrow Side 3
  0
3DFACE
  8
1
 62
  3
 10
       -9.50000
 20
        4.50000
 30
        0.10000
 11
       -9.50000
 21
        4.50000
 31
        0.00000
 12
       -9.50000
 22
        3.50000
 32
        0.00000
 13
       -9.50000
 23
        3.50000
 33
        0.10000
999
Zone Names
999
Zone=1:BULKSTORAGE
999
Zone=2:FINESTORAGE
999
Zone=3:OFFICE
999
BULKSTORAGE:BULKSTORAGE_WALL_EAST
  0
3DFACE
  8
BULKSTORAGE
 62
 43
 10
       45.71780
 20
       30.47850
 30
        8.53400
 11
       45.71780
 21
       30.47850
 31
        0.00000
 12
       45.71780
 22
      100.57900
 32
        0.00000
 13
       45.71780
 23
      100.57900
 33
        8.53400
999
BULKSTORAGE:BULKSTORAGE_WALL_EAST_DOOR_1
  0
3DFACE
  8
BULKSTORAGE
 62
 45
 10
       45.71800
 20
       47.54650
 30
        2.13350
 11
       45.71800
 21
       47.54650
 31
        0.00000
 12
       45.71800
 22
       48.46080
 32
        0.00000
 13
       45.71800
 23
       48.46080
 33
        2.13350
999
BULKSTORAGE:BULKSTORAGE_WALL_EAST_DOOR_2
  0
3DFACE
  8
BULKSTORAGE
 62
 45
 10
       45.71800
 20
       65.07160
 30
        2.13350
 11
       45.71800
 21
       65.07160
 31
        0.00000
 12
       45.71800
 22
       65.98600
 32
        0.00000
 13
       45.71800
 23
       65.98600
 33
        2.13350
999
BULKSTORAGE:BULKSTORAGE_WALL_EAST_DOOR_3
  0
3DFACE
  8
BULKSTORAGE
 62
 45
 10
       45.71800
 20
       82.59680
 30
        2.13350
 11
       45.71800
 21
       82.59680
 31
        0.00000
 12
       45.71800
 22
       83.51110
 32
        0.00000
 13
       45.71800
 23
       83.51110
 33
        2.13350
999
BULKSTORAGE:BULKSTORAGE_WALL_NORTH
  0
3DFACE
  8
BULKSTORAGE
 62
 43
 10
       45.71780
 20
      100.57900
 30
        8.53400
 11
       45.71780
 21
      100.57900
 31
        0.00000
 12
        0.00000
 22
      100.57900
 32
        0.00000
 13
        0.00000
 23
      100.57900
 33
        8.53400
999
BULKSTORAGE:BULKSTORAGE_WALL_WEST
  0
3DFACE
  8
BULKSTORAGE
 62
 43
 10
        0.00000
 20
      100.57900
 30
        8.53400
 11
        0.00000
 21
      100.57900
 31
        0.00000
 12
        0.00000
 22
       30.47850
 32
        0.00000
 13
        0.00000
 23
       30.47850
 33
        8.53400
999
BULKSTORAGE:BULKSTORAGE_WALL_WEST_OHDOOR_1
  0
3DFACE
  8
BULKSTORAGE
 62
 45
 10
        0.00000
 20
       93.95000
 30
        3.04780
 11
        0.00000
 21
       93.95000
 31
        0.00000
 12
        0.00000
 22
       91.51170
 32
        0.00000
 13
        0.00000
 23
       91.51170
 33
        3.04780
999
BULKSTORAGE:BULKSTORAGE_WALL_WEST_OHDOOR_2
  0
3DFACE
  8
BULKSTORAGE
 62
 45
 10
        0.00000
 20
       84.88270
 30
        3.04780
 11
        0.00000
 21
       84.88270
 31
        0.00000
 12
        0.00000
 22
       82.44440
 32
        0.00000
 13
        0.00000
 23
       82.44440
 33
        3.04780
999
BULKSTORAGE:BULKSTORAGE_WALL_WEST_OHDOOR_3
  0
3DFACE
  8
BULKSTORAGE
 62
 45
 10
        0.00000
 20
       75.81530
 30
        3.04780
 11
        0.00000
 21
       75.81530
 31
        0.00000
 12
        0.00000
 22
       73.37700
 32
        0.00000
 13
        0.00000
 23
       73.37700
 33
        3.04780
999
BULKSTORAGE:BULKSTORAGE_WALL_WEST_OHDOOR_4
  0
3DFACE
  8
BULKSTORAGE
 62
 45
 10
        0.00000
 20
       66.74790
 30
        3.04780
 11
        0.00000
 21
       66.74790
 31
        0.00000
 12
        0.00000
 22
       64.30970
 32
        0.00000
 13
        0.00000
 23
       64.30970
 33
        3.04780
999
BULKSTORAGE:BULKSTORAGE_WALL_WEST_OHDOOR_5
  0
3DFACE
  8
BULKSTORAGE
 62
 45
 10
        0.00000
 20
       57.68060
 30
        3.04780
 11
        0.00000
 21
       57.68060
 31
        0.00000
 12
        0.00000
 22
       55.24230
 32
        0.00000
 13
        0.00000
 23
       55.24230
 33
        3.04780
999
BULKSTORAGE:BULKSTORAGE_WALL_WEST_OHDOOR_6
  0
3DFACE
  8
BULKSTORAGE
 62
 45
 10
        0.00000
 20
       48.61320
 30
        3.04780
 11
        0.00000
 21
       48.61320
 31
        0.00000
 12
        0.00000
 22
       46.17490
 32
        0.00000
 13
        0.00000
 23
       46.17490
 33
        3.04780
999
BULKSTORAGE:BULKSTORAGE_WALL_WEST_OHDOOR_7
  0
3DFACE
  8
BULKSTORAGE
 62
 45
 10
        0.00000
 20
       39.54590
 30
        3.04780
 11
        0.00000
 21
       39.54590
 31
        0.00000
 12
        0.00000
 22
       37.10760
 32
        0.00000
 13
        0.00000
 23
       37.10760
 33
        3.04780
999
BULKSTORAGE:iz-FINESTORAGE_WALL_NORTH
  0
3DFACE
  8
BULKSTORAGE
 62
 43
 10
        0.00000
 20
       30.47850
 30
        8.53400
 11
        0.00000
 21
       30.47850
 31
        0.00000
 12
       45.71780
 22
       30.47850
 32
        0.00000
 13
       45.71780
 23
       30.47850
 33
        8.53400
999
BULKSTORAGE:BULKSTORAGE_FLOOR
  0
3DFACE
  8
BULKSTORAGE
 62
  8
 10
       45.71780
 20
      100.57900
 30
        0.00000
 11
       45.71780
 21
       30.47850
 31
        0.00000
 12
        0.00000
 22
       30.47850
 32
        0.00000
 13
        0.00000
 23
      100.57900
 33
        0.00000
999
BULKSTORAGE:BULKSTORAGE_CEILING
  0
3DFACE
  8
BULKSTORAGE
 62
 15
 10
        0.00000
 20
      100.57900
 30
        8.53400
 11
        0.00000
 21
       30.47850
 31
        8.53400
 12
       45.71780
 22
       30.47850
 32
        8.53400
 13
       45.71780
 23
      100.57900
 33
        8.53400
999
FINESTORAGE:FINE STORAGE OFFICE_WALL_SOUTH
  0
3DFACE
  8
FINESTORAGE
 62
 43
 10
        0.00000
 20
        0.00000
 30
        8.53400
 11
        0.00000
 21
        0.00000
 31
        4.26700
 12
       25.90670
 22
        0.00000
 32
        4.26700
 13
       25.90670
 23
        0.00000
 33
        8.53400
999
FINESTORAGE:FINE STORAGE OFFICE_WALL_WEST
  0
3DFACE
  8
FINESTORAGE
 62
 43
 10
        0.00000
 20
        9.14350
 30
        8.53400
 11
        0.00000
 21
        9.14350
 31
        4.26700
 12
        0.00000
 22
        0.00000
 32
        4.26700
 13
        0.00000
 23
        0.00000
 33
        8.53400
999
FINESTORAGE:FINESTORAGE_WALL_EAST
  0
3DFACE
  8
FINESTORAGE
 62
 43
 10
       45.71780
 20
        0.00000
 30
        8.53400
 11
       45.71780
 21
        0.00000
 31
        0.00000
 12
       45.71780
 22
       30.47850
 32
        0.00000
 13
       45.71780
 23
       30.47850
 33
        8.53400
999
FINESTORAGE:FINESTORAGE_WALL_EAST_DOOR_1
  0
3DFACE
  8
FINESTORAGE
 62
 45
 10
       45.71800
 20
       14.78210
 30
        2.13350
 11
       45.71800
 21
       14.78210
 31
        0.00000
 12
       45.71800
 22
       15.69640
 32
        0.00000
 13
       45.71800
 23
       15.69640
 33
        2.13350
999
FINESTORAGE:FINESTORAGE_WALL_NORTH
  0
3DFACE
  8
FINESTORAGE
 62
 43
 10
       45.71780
 20
       30.47850
 30
        8.53400
 11
       45.71780
 21
       30.47850
 31
        0.00000
 12
        0.00000
 22
       30.47850
 32
        0.00000
 13
        0.00000
 23
       30.47850
 33
        8.53400
999
FINESTORAGE:FINESTORAGE_WALL_SOUTH_1
  0
3DFACE
  8
FINESTORAGE
 62
 43
 10
       25.90670
 20
        0.00000
 30
        8.53400
 11
       25.90670
 21
        0.00000
 31
        0.00000
 12
       45.71780
 22
        0.00000
 32
        0.00000
 13
       45.71780
 23
        0.00000
 33
        8.53400
999
FINESTORAGE:FINESTORAGE_WALL_WEST_1
  0
3DFACE
  8
FINESTORAGE
 62
 43
 10
        0.00000
 20
       30.47850
 30
        8.53400
 11
        0.00000
 21
       30.47850
 31
        0.00000
 12
        0.00000
 22
        9.14350
 32
        0.00000
 13
        0.00000
 23
        9.14350
 33
        8.53400
999
FINESTORAGE:FINESTORAGE_WALL_WEST_1_DOOR_1
  0
3DFACE
  8
FINESTORAGE
 62
 45
 10
        0.00000
 20
       20.26820
 30
        2.13350
 11
        0.00000
 21
       20.26820
 31
        0.00000
 12
        0.00000
 22
       19.35390
 32
        0.00000
 13
        0.00000
 23
       19.35390
 33
        2.13350
999
FINESTORAGE:iz-OFFICE_WALL_EAST
  0
3DFACE
  8
FINESTORAGE
 62
 43
 10
       25.90670
 20
        9.14350
 30
        4.26700
 11
       25.90670
 21
        9.14350
 31
        0.00000
 12
       25.90670
 22
        0.00000
 32
        0.00000
 13
       25.90670
 23
        0.00000
 33
        4.26700
999
FINESTORAGE:iz-OFFICE_WALL_NORTH
  0
3DFACE
  8
FINESTORAGE
 62
 43
 10
        0.00000
 20
        9.14350
 30
        4.26700
 11
        0.00000
 21
        9.14350
 31
        0.00000
 12
       25.90670
 22
        9.14350
 32
        0.00000
 13
       25.90670
 23
        9.14350
 33
        4.26700
999
FINESTORAGE:FINESTORAGE_FLOOR
  0
3DFACE
  8
FINESTORAGE
 62
  8
 10
       45.71780
 20
       30.47850
 30
        0.00000
 11
       45.71780
 21
        0.00000
 31
        0.00000
 12
       25.90670
 22
        0.00000
 32
        0.00000
 13
       25.90670
 23
        0.00000
 33
        0.00000
  0
3DFACE
  8
FINESTORAGE
 62
  8
 10
       45.71780
 20
       30.47850
 30
        0.00000
 11
       25.90670
 21
        0.00000
 31
        0.00000
 12
       25.90670
 22
        9.14350
 32
        0.00000
 13
       25.90670
 23
        9.14350
 33
        0.00000
  0
3DFACE
  8
FINESTORAGE
 62
  8
 10
       45.71780
 20
       30.47850
 30
        0.00000
 11
       25.90670
 21
        9.14350
 31
        0.00000
 12
        0.00000
 22
        9.14350
 32
        0.00000
 13
        0.00000
 23
        9.14350
 33
        0.00000
  0
3DFACE
  8
FINESTORAGE
 62
  8
 10
       45.71780
 20
       30.47850
 30
        0.00000
 11
        0.00000
 21
        9.14350
 31
        0.00000
 12
        0.00000
 22
       30.47850
 32
        0.00000
 13
        0.00000
 23
       30.47850
 33
        0.00000
999
FINESTORAGE:FINESTORAGE_FLOOR_2
  0
3DFACE
  8
FINESTORAGE
 62
  8
 10
        0.00000
 20
        0.00000
 30
        4.26700
 11
        0.00000
 21
        9.14350
 31
        4.26700
 12
       25.90670
 22
        9.14350
 32
        4.26700
 13
       25.90670
 23
        0.00000
 33
        4.26700
999
FINESTORAGE:FINESTORAGE_CEILING
  0
3DFACE
  8
FINESTORAGE
 62
 15
 10
       45.71780
 20
        0.00000
 30
        8.53400
 11
       45.71780
 21
       30.47850
 31
        8.53400
 12
        0.00000
 22
       30.47850
 32
        8.53400
 13
        0.00000
 23
        0.00000
 33
        8.53400
999
OFFICE:OFFICE_WALL_EAST
  0
3DFACE
  8
OFFICE
 62
 43
 10
       25.90670
 20
        0.00000
 30
        4.26700
 11
       25.90670
 21
        0.00000
 31
        0.00000
 12
       25.90670
 22
        9.14350
 32
        0.00000
 13
       25.90670
 23
        9.14350
 33
        4.26700
999
OFFICE:OFFICE_WALL_NORTH
  0
3DFACE
  8
OFFICE
 62
 43
 10
       25.90670
 20
        9.14350
 30
        4.26700
 11
       25.90670
 21
        9.14350
 31
        0.00000
 12
        0.00000
 22
        9.14350
 32
        0.00000
 13
        0.00000
 23
        9.14350
 33
        4.26700
999
OFFICE:OFFICE_WALL_SOUTH
  0
3DFACE
  8
OFFICE
 62
 43
 10
        0.00000
 20
        0.00000
 30
        4.26700
 11
        0.00000
 21
        0.00000
 31
        0.00000
 12
       25.90670
 22
        0.00000
 32
        0.00000
 13
       25.90670
 23
        0.00000
 33
        4.26700
999
OFFICE:OFFICE_WALL_SOUTH WINDOW 1
  0
3DFACE
  8
OFFICE
 62
143
 10
        3.65740
 20
        0.00000
 30
        2.43930
 11
        3.65740
 21
        0.00000
 31
        0.91440
 12
        7.31480
 22
        0.00000
 32
        0.91440
 13
        7.31480
 23
        0.00000
 33
        2.43930
999
OFFICE:OFFICE_WALL_SOUTH WINDOW2
  0
3DFACE
  8
OFFICE
 62
143
 10
       18.59190
 20
        0.00000
 30
        2.43930
 11
       18.59190
 21
        0.00000
 31
        0.91440
 12
       22.24930
 22
        0.00000
 32
        0.91440
 13
       22.24930
 23
        0.00000
 33
        2.43930
999
OFFICE:OFFICE_WALL_SOUTH_DOOR_1
  0
3DFACE
  8
OFFICE
 62
 45
 10
       12.03900
 20
        0.00000
 30
        2.13350
 11
       12.03900
 21
        0.00000
 31
        0.00000
 12
       13.86800
 22
        0.00000
 32
        0.00000
 13
       13.86800
 23
        0.00000
 33
        2.13350
999
OFFICE:OFFICE_WALL_WEST
  0
3DFACE
  8
OFFICE
 62
 43
 10
        0.00000
 20
        9.14350
 30
        4.26700
 11
        0.00000
 21
        9.14350
 31
        0.00000
 12
        0.00000
 22
        0.00000
 32
        0.00000
 13
        0.00000
 23
        0.00000
 33
        4.26700
999
OFFICE:OFFICE_WALL_WEST DOOR
  0
3DFACE
  8
OFFICE
 62
 45
 10
        0.00000
 20
        5.02900
 30
        2.13350
 11
        0.00000
 21
        5.02900
 31
        0.00000
 12
        0.00000
 22
        4.11460
 32
        0.00000
 13
        0.00000
 23
        4.11460
 33
        2.13350
999
OFFICE:OFFICE_WALL_WEST WINDOW1
  0
3DFACE
  8
OFFICE
 62
143
 10
        0.00000
 20
        7.51910
 30
        2.43930
 11
        0.00000
 21
        7.51910
 31
        0.91440
 12
        0.00000
 22
        5.38560
 32
        0.91440
 13
        0.00000
 23
        5.38560
 33
        2.43930
999
OFFICE:OFFICE_WALL_WEST WINDOW2
  0
3DFACE
  8
OFFICE
 62
143
 10
        0.00000
 20
        3.75800
 30
        2.43930
 11
        0.00000
 21
        3.75800
 31
        0.91440
 12
        0.00000
 22
        1.62450
 32
        0.91440
 13
        0.00000
 23
        1.62450
 33
        2.43930
999
OFFICE:OFFICE_FLOOR
  0
3DFACE
  8
OFFICE
 62
  8
 10
       25.90670
 20
        9.14350
 30
        0.00000
 11
       25.90670
 21
        0.00000
 31
        0.00000
 12
        0.00000
 22
        0.00000
 32
        0.00000
 13
        0.00000
 23
        9.14350
 33
        0.00000
999
OFFICE:OFFICE_CEILING
  0
3DFACE
  8
OFFICE
 62
 15
 10
       25.90670
 20
        0.00000
 30
        4.26700
 11
       25.90670
 21
        9.14350
 31
        4.26700
 12
        0.00000
 22
        9.14350
 32
        4.26700
 13
        0.00000
 23
        0.00000
 33
        4.26700
  0
ENDSEC
  0
EOF
